module gitlab.com/Elevarup/ele_fun/yes_no_clone

go 1.21.0

require (
	github.com/go-sql-driver/mysql v1.7.1
	github.com/gorilla/mux v1.8.1
	github.com/ilyakaznacheev/cleanenv v1.5.0
)

require (
	github.com/BurntSushi/toml v1.2.1 // indirect
	github.com/joho/godotenv v1.5.1 // indirect
	gopkg.in/yaml.v3 v3.0.1 // indirect
	olympos.io/encoding/edn v0.0.0-20201019073823-d3554ca0b0a3 // indirect
)
